Final Project
…
## # A tibble: 515 x 6
##    school               enrollment budget_19 budget_20 budget_change perc_change
##    <chr>                     <dbl>     <dbl>     <dbl>         <dbl> <chr>      
##  1 World Language Acad        350   3167664   3357242        189578 5.98%      
##  2 Woodlawn Community         206   1818223   1776635        -41587 -2.29%     
##  3 Wolfgang A Mozart E        585   5163222   5165002          1780 0.03%      
##  4 Wilma Rudolph Eleme         90   2739797   2850736        110939 4.05%      
##  5 William W Carter El        361   3044932   2814553       -230380 -7.57%     
##  6 William T Sherman E        250   2173652   2579965        406313 18.69%     
##  7 William Rainey Harp         80   1875213   1450056       -425157 -22.67%    
##  8 William Penn Elemen        275   3319465   3018518       -300948 -9.07%     
##  9 William P Nixon Ele        760   6311763   6187469       -124294 -1.97%     
## 10 William P Gray Elem       1153   8524025   9048285        524261 6.15%      
## #  with 505 more rows
…
